Exception: Privileged Instruction (code 0xc0000096) at address 1E1D4BDD in thread 1C38
Module: python26.dll
Logical Address: 0002:00095BDD

0012FE1C 1E1D4BDD PyFloat_Type+5
Params: 02265320 1E0379DC 00000000 1E1EDF78

StackWalk failed (error 299)

EAX:1E1D4B08 EBX:1E0379DC ECX:00000000 EDX:012F1030 ESI:01345BA8 EDI:00000000
EIP:1E1D4BDD ESP:0012FDF4  EBP:0012FE1C
CS:001B SS:0023 DS:0023 ES:0023 FS:003B GS:0000
Flags:00210A96

Windows Ver: NT 6.1 Service Pack 1 Build 7601
DDraw Ver: 
DSound Ver: 

Product: Petal Hero Prototype
Version: 1.0
Time Loaded: 00:00:06
Fullscreen: No
Primary ThreadId: 1C38

