Exception: Access Violation (code 0xc0000005) at address 005454E3 in thread 8DC
Module: PyCap.exe
Logical Address: 0001:001444E3

0012F740 005454E3 0001:001444E3 PyCap.exe
Params: 00000000 01591A00 00483B3A 0012F974

StackWalk failed (error 299)

EAX:00000000 EBX:00000001 ECX:01591A00 EDX:005454D0 ESI:00000000 EDI:FFFFFFFE
EIP:005454E3 ESP:0012F734  EBP:0012F740
CS:001B SS:0023 DS:0023 ES:0023 FS:003B GS:0000
Flags:00010212

Windows Ver: NT 6.1 Service Pack 1 Build 7601
DDraw Ver: 
DSound Ver: 

Product: Product
Version: 
Time Loaded: 00:00:01
Fullscreen: No
Primary ThreadId: 8DC

